  ___  _   _ _____ _   _
 / _ \| | | |_   _| | | |
/ /_\ \ | | | | | | |_| |
|  _  | | | | | | |  _  |
| | | | |_| | | | | | | |
\_| |_/\___/  \_/ \_| |_/

╔═╗╔═╗╦  ╔═╗╔═╗╦═╗╦  ╦╔═╗╦═╗
╠═╣╠═╝║  ╚═╗║╣ ╠╦╝╚╗╔╝║╣ ╠╦╝
╩ ╩╩  ╩  ╚═╝╚═╝╩╚═ ╚╝ ╚═╝╩╚═
